…
``` r
# install.packages("devtools")
devtools::install_github("williamorim/brasileirao")
```

## Example

Data from the 2020 season:

``` r
library(brasileirao)

matches %>% 
  dplyr::filter(season == 2020)
#> # A tibble: 276 x 5
#>    season date       home        score away         
#>     <dbl> <date>     <chr>       <chr> <chr>        
#>  1   2020 2020-08-08 Fortaleza   0x2   Athletico-PR 
#>  2   2020 2020-08-08 Coritiba    0x1   Internacional
#>  3   2020 2020-08-08 Sport       3x2   Ceará        
#>  4   2020 2020-08-09 Flamengo    0x1   Atlético-MG  
#>  5   2020 2020-08-09 Santos      1x1   Bragantino   
#>  6   2020 2020-08-09 Grêmio      1x0   Fluminense   
#>  7   2020 2020-09-30 Botafogo    1x2   Bahia        
#>  8   2020 2020-09-30 Corinthians 0x0   Atlético-GO  
#>  9   2020 2020-12-03 Goiás       0x3   São Paulo    
#> 10   2020 2020-08-12 Bragantino  1x1   Botafogo     
#> # ... with 266 more rows
```
…
